{
    "data": [
        {
            "id": 1,
            "email": "alice@example.com",
            "first_name": "Alice",
            "last_name": null,
            "gender": null,
            "status": 1,
            "date_of_birth": null,
            "country_id": null,
            "city_id": null,
            "created_at": "2026-01-01T00:00:00+00:00"
        },
        {
            "id": 2,
            "email": "bob@example.com",
            "first_name": "Bob",
            "last_name": null,
            "gender": null,
            "status": 1,
            "date_of_birth": null,
            "country_id": null,
            "city_id": null,
            "created_at": "2026-01-01T00:00:00+00:00"
        }
    ],
    "links": {
        "first": "https://ems.sendigram.com/open-api/v1/contacts?page=1",
        "last":  "https://ems.sendigram.com/open-api/v1/contacts?page=2",
        "prev":  null,
        "next":  "https://ems.sendigram.com/open-api/v1/contacts?page=2"
    },
    "meta": {
        "current_page": 1,
        "last_page":    2,
        "per_page":     2,
        "total":        3,
        "from":         1,
        "to":           2
    }
}
